…
    1      2      161
    2      3      161
    3      4      161
    4      5      161
    5      6      161
    6      7      154
    7      8      154
    8      9      154
    9     10      154
    10    11      153
    # ... with more rows, and 7 more variables: title <chr>,
    #   description <chr>, url <chr>, ranking <int>, hash <chr>, score <dbl>,
    #   interest_lvl <int>

    # A tibble: 168 × 3
                                         thesaurus1         thesaurus2
                                              <chr>              <chr>
    1                                  ingénierie     digitalisation  
    2                  ingénierie en informatique     digitalisation  
    3                       ingénierie financière     digitalisation  
    4                     ingénierie industrielle     digitalisation  
    5    ingénierie et de conseil en technologies     digitalisation  
    6                    ingénierie et de conseil     digitalisation  
    7                     ingénierie informatique     digitalisation  
    8                                  ingénierie            digital  
    9                  ingénierie en informatique            digital  
    10                      ingénierie financière            digital  
    # ... with 158 more rows, and 1 more variables: thesaurus3 <chr>
…
